Lab3/simulation/qsim/TrafficLight.msim.vcd
$comment
	File created using the following command:
		vcd file TrafficLight.msim.vcd -direction
$end
$date
	Wed Dec 06 01:56:36 2023
$end
$version
	ModelSim Version 10.1d
$end
$timescale
	1ps
$end
$scope module testBench_vlg_vec_tst $end
$var reg 1 ! clk $end
$var reg 1 " ctep $end
$var reg 1 # resetn $end
$var reg 1 $ sscs $end
$var wire 1 % mstl [2] $end
$var wire 1 & mstl [1] $end
$var wire 1 ' mstl [0] $end
$var wire 1 ( slct [1] $end
$var wire 1 ) slct [0] $end
$var wire 1 * sstl [2] $end
$var wire 1 + sstl [1] $end
$var wire 1 , sstl [0] $end
$var wire 1 - sampler $end
$scope module i1 $end
$var wire 1 . gnd $end
$var wire 1 / vcc $end
$var wire 1 0 unknown $end
$var tri1 1 1 devclrn $end
$var tri1 1 2 devpor $end
$var tri1 1 3 devoe $end
$var wire 1 4 sscs~input_o $end
$var wire 1 5 mstl[2]~output_o $end
$var wire 1 6 mstl[1]~output_o $end
$var wire 1 7 mstl[0]~output_o $end
$var wire 1 8 slct[1]~output_o $end
$var wire 1 9 slct[0]~output_o $end
$var wire 1 : sstl[2]~output_o $end
$var wire 1 ; sstl[1]~output_o $end
$var wire 1 < sstl[0]~output_o $end
$var wire 1 = clk~input_o $end
$var wire 1 > clk~inputclkctrl_outclk $end
$var wire 1 ? ctep~input_o $end
$var wire 1 @ inst|signalD~0_combout $end
$var wire 1 A resetn~input_o $end
$var wire 1 B resetn~inputclkctrl_outclk $end
$var wire 1 C inst|generateDFF:0:dFFInst|int_q~q $end
$var wire 1 D inst|generateDFF:2:dFFInst|int_q~0_combout $end
$var wire 1 E inst|generateDFF:2:dFFInst|int_q~q $end
$var wire 1 F inst|signalD[1]~1_combout $end
$var wire 1 G inst|generateDFF:1:dFFInst|int_q~q $end
$var wire 1 H inst|mstl[1]~0_combout $end
$var wire 1 I inst|mstl~1_combout $end
$var wire 1 J inst|generateDFF:3:dFFInst|int_q~0_combout $end
$var wire 1 K inst|generateDFF:3:dFFInst|int_q~q $end
$var wire 1 L inst|mstl[1]~2_combout $end
$var wire 1 M inst|mstl[1]~3_combout $end
$var wire 1 N inst|slct [1] $end
$var wire 1 O inst|slct [0] $end
$upscope $end
$upscope $end
$enddefinitions $end
#0
$dumpvars
0!
0"
1#
0$
1'
0&
0%
0)
0(
0,
0+
1*
x-
0.
1/
x0
11
12
13
04
05
06
17
08
09
1:
0;
0<
0=
0>
0?
1@
1A
1B
0C
0D
0E
0F
0G
0H
0I
0J
0K
0L
0M
0O
zN
$end
#5000
1!
1=
1>
0-
1C
#10000
0!
0=
0>
1-
#15000
1!
1=
1>
0-
#20000
0!
0=
0>
1-
#25000
1!
1=
1>
0-
#30000
0!
0=
0>
1-
#35000
1!
1=
1>
0-
#40000
0!
0=
0>
1-
#45000
1!
1=
1>
0-
#50000
1$
0!
14
0=
0>
1-
#55000
1!
1=
1>
0-
#60000
0!
0=
0>
1-
#65000
1!
1=
1>
0-
#70000
0!
0=
0>
1-
#75000
1!
1=
1>
0-
#80000
0!
0=
0>
1-
#85000
1!
1=
1>
0-
#90000
0!
0=
0>
1-
#95000
1!
1=
1>
0-
#100000
1"
0$
0!
1?
04
0=
0>
1-
0@
#105000
1!
1=
1>
0-
0C
1@
#110000
0!
0=
0>
1-
#115000
1!
1=
1>
0-
1C
0@
#120000
0!
0=
0>
1-
#125000
1!
1=
1>
0-
0C
1@
#130000
0!
0=
0>
1-
#135000
1!
1=
1>
0-
1C
0@
#140000
0!
0=
0>
1-
#145000
1!
1=
1>
0-
0C
1@
#150000
1$
0!
14
0=
0>
1-
#155000
1!
1=
1>
0-
1C
0@
1F
#160000
0!
0=
0>
1-
#165000
1!
1=
1>
0-
1G
0C
1I
0F
1@
1O
1H
1F
07
19
16
0'
1)
1&
#170000
0!
0=
0>
1-
#175000
1!
1=
1>
0-
1C
1D
0@
0F
#180000
0!
0=
0>
1-
#185000
1!
1=
1>
0-
0G
0C
1E
1F
1@
18
15
0:
1(
1%
0*
1M
0O
0H
0F
1<
09
06
1,
0)
0&
#190000
0!
0=
0>
1-
#195000
1!
1=
1>
0-
1C
0@
1F
#200000
0"
0$
0!
0?
04
0=
0>
1-
1@
0F
#205000
1!
1=
1>
0-
#210000
0!
0=
0>
1-
#215000
1!
1=
1>
0-
#220000
0!
0=
0>
1-
#225000
1!
1=
1>
0-
#230000
0!
0=
0>
1-
#235000
1!
1=
1>
0-
#240000
0!
0=
0>
1-
#245000
1!
1=
1>
0-
#250000
1$
0!
14
0=
0>
1-
#255000
1!
1=
1>
0-
#260000
0!
0=
0>
1-
#265000
1!
1=
1>
0-
#270000
0!
0=
0>
1-
#275000
1!
1=
1>
0-
#280000
0!
0=
0>
1-
#285000
1!
1=
1>
0-
#290000
0!
0=
0>
1-
#295000
1!
1=
1>
0-
#300000
1"
0$
0!
1?
04
0=
0>
1-
0@
1F
#305000
1!
1=
1>
0-
1G
0C
1J
0F
1@
0M
1L
1O
0J
1F
0<
1;
19
0,
1+
1)
#310000
0!
0=
0>
1-
#315000
1!
1=
1>
0-
1C
0D
0@
1J
0F
#320000
0!
0=
0>
1-
#325000
1!
1=
1>
0-
1K
0G
0C
0E
0J
0I
1@
08
05
1:
0(
0%
1*
0L
1J
17
0;
1'
0+
#330000
0!
0=
0>
1-
#335000
1!
1=
1>
0-
1C
0@
0J
#340000
0!
0=
0>
1-
#345000
1!
1=
1>
0-
0K
0C
1@
0O
09
0)
#350000
1$
0!
14
0=
0>
1-
#355000
1!
1=
1>
0-
1C
0@
1F
#360000
0!
0=
0>
1-
#365000
1!
1=
1>
0-
1G
0C
1I
0F
1@
1O
1H
1F
07
19
16
0'
1)
1&
#370000
0!
0=
0>
1-
#375000
1!
1=
1>
0-
1C
1D
0@
0F
#380000
0!
0=
0>
1-
#385000
1!
1=
1>
0-
0G
0C
1E
1F
1@
18
15
0:
1(
1%
0*
1M
0O
0H
0F
1<
09
06
1,
0)
0&
#390000
0!
0=
0>
1-
#395000
1!
1=
1>
0-
1C
0@
1F
#400000
0"
0$
0!
0?
04
0=
0>
1-
1@
0F
#405000
1!
1=
1>
0-
#410000
0!
0=
0>
1-
#415000
1!
1=
1>
0-
#420000
0!
0=
0>
1-
#425000
1!
1=
1>
0-
#430000
0!
0=
0>
1-
#435000
1!
1=
1>
0-
#440000
0!
0=
0>
1-
#445000
1!
1=
1>
0-
#450000
1$
0!
14
0=
0>
1-
#455000
1!
1=
1>
0-
#460000
0!
0=
0>
1-
#465000
1!
1=
1>
0-
#470000
0!
0=
0>
1-
#475000
1!
1=
1>
0-
#480000
0!
0=
0>
1-
#485000
1!
1=
1>
0-
#490000
0!
0=
0>
1-
#495000
1!
1=
1>
0-
#500000
1"
0$
0!
1?
04
0=
0>
1-
0@
1F
#505000
1!
1=
1>
0-
1G
0C
1J
0F
1@
0M
1L
1O
0J
1F
0<
1;
19
0,
1+
1)
#510000
0!
0=
0>
1-
#515000
1!
1=
1>
0-
1C
0D
0@
1J
0F
#520000
0!
0=
0>
1-
#525000
1!
1=
1>
0-
1K
0G
0C
0E
0J
0I
1@
08
05
1:
0(
0%
1*
0L
1J
17
0;
1'
0+
#530000
0!
0=
0>
1-
#535000
1!
1=
1>
0-
1C
0@
0J
#540000
0!
0=
0>
1-
#545000
1!
1=
1>
0-
0K
0C
1@
0O
09
0)
#550000
1$
0!
14
0=
0>
1-
#555000
1!
1=
1>
0-
1C
0@
1F
#560000
0!
0=
0>
1-
#565000
1!
1=
1>
0-
1G
0C
1I
0F
1@
1O
1H
1F
07
19
16
0'
1)
1&
#570000
0!
0=
0>
1-
#575000
1!
1=
1>
0-
1C
1D
0@
0F
#580000
0!
0=
0>
1-
#585000
1!
1=
1>
0-
0G
0C
1E
1F
1@
18
15
0:
1(
1%
0*
1M
0O
0H
0F
1<
09
06
1,
0)
0&
#590000
0!
0=
0>
1-
#595000
1!
1=
1>
0-
1C
0@
1F
#600000
0"
0$
0!
0?
04
0=
0>
1-
1@
0F
#605000
1!
1=
1>
0-
#610000
0!
0=
0>
1-
#615000
1!
1=
1>
0-
#620000
0!
0=
0>
1-
#625000
1!
1=
1>
0-
#630000
0!
0=
0>
1-
#635000
1!
1=
1>
0-
#640000
0!
0=
0>
1-
#645000
1!
1=
1>
0-
#650000
1$
0!
14
0=
0>
1-
#655000
1!
1=
1>
0-
#660000
0!
0=
0>
1-
#665000
1!
1=
1>
0-
#670000
0!
0=
0>
1-
#675000
1!
1=
1>
0-
#680000
0!
0=
0>
1-
#685000
1!
1=
1>
0-
#690000
0!
0=
0>
1-
#695000
1!
1=
1>
0-
#700000
1"
0$
0!
1?
04
0=
0>
1-
0@
1F
#705000
1!
1=
1>
0-
1G
0C
1J
0F
1@
0M
1L
1O
0J
1F
0<
1;
19
0,
1+
1)
#710000
0!
0=
0>
1-
#715000
1!
1=
1>
0-
1C
0D
0@
1J
0F
#720000
0!
0=
0>
1-
#725000
1!
1=
1>
0-
1K
0G
0C
0E
0J
0I
1@
08
05
1:
0(
0%
1*
0L
1J
17
0;
1'
0+
#730000
0!
0=
0>
1-
#735000
1!
1=
1>
0-
1C
0@
0J
#740000
0!
0=
0>
1-
#745000
1!
1=
1>
0-
0K
0C
1@
0O
09
0)
#750000
1$
0!
14
0=
0>
1-
#755000
1!
1=
1>
0-
1C
0@
1F
#760000
0!
0=
0>
1-
#765000
1!
1=
1>
0-
1G
0C
1I
0F
1@
1O
1H
1F
07
19
16
0'
1)
1&
#770000
0!
0=
0>
1-
#775000
1!
1=
1>
0-
1C
1D
0@
0F
#780000
0!
0=
0>
1-
#785000
1!
1=
1>
0-
0G
0C
1E
1F
1@
18
15
0:
1(
1%
0*
1M
0O
0H
0F
1<
09
06
1,
0)
0&
#790000
0!
0=
0>
1-
#795000
1!
1=
1>
0-
1C
0@
1F
#800000
0"
0$
0!
0?
04
0=
0>
1-
1@
0F
#805000
1!
1=
1>
0-
#810000
0!
0=
0>
1-
#815000
1!
1=
1>
0-
#820000
0!
0=
0>
1-
#825000
1!
1=
1>
0-
#830000
0!
0=
0>
1-
#835000
1!
1=
1>
0-
#840000
0!
0=
0>
1-
#845000
1!
1=
1>
0-
#850000
1$
0!
14
0=
0>
1-
#855000
1!
1=
1>
0-
#860000
0!
0=
0>
1-
#865000
1!
1=
1>
0-
#870000
0!
0=
0>
1-
#875000
1!
1=
1>
0-
#880000
0!
0=
0>
1-
#885000
1!
1=
1>
0-
#890000
0!
0=
0>
1-
#895000
1!
1=
1>
0-
#900000
1"
0$
0!
1?
04
0=
0>
1-
0@
1F
#905000
1!
1=
1>
0-
1G
0C
1J
0F
1@
0M
1L
1O
0J
1F
0<
1;
19
0,
1+
1)
#910000
0!
0=
0>
1-
#915000
1!
1=
1>
0-
1C
0D
0@
1J
0F
#920000
0!
0=
0>
1-
#925000
1!
1=
1>
0-
1K
0G
0C
0E
0J
0I
1@
08
05
1:
0(
0%
1*
0L
1J
17
0;
1'
0+
#930000
0!
0=
0>
1-
#935000
1!
1=
1>
0-
1C
0@
0J
#940000
0!
0=
0>
1-
#945000
1!
1=
1>
0-
0K
0C
1@
0O
09
0)
#950000
1$
0!
14
0=
0>
1-
#955000
1!
1=
1>
0-
1C
0@
1F
#960000
0!
0=
0>
1-
#965000
1!
1=
1>
0-
1G
0C
1I
0F
1@
1O
1H
1F
07
19
16
0'
1)
1&
#970000
0!
0=
0>
1-
#975000
1!
1=
1>
0-
1C
1D
0@
0F
#980000
0!
0=
0>
1-
#985000
1!
1=
1>
0-
0G
0C
1E
1F
1@
18
15
0:
1(
1%
0*
1M
0O
0H
0F
1<
09
06
1,
0)
0&
#990000
0!
0=
0>
1-
#995000
1!
1=
1>
0-
1C
0@
1F
